<svg width="19" height="15" viewBox="0 0 19 15" fill="none" xmlns="http://www.w3.org/2000/svg">
<path d="M2.65101 4.46948C2.87807 4.63421 3.5625 5.12347 4.70435 5.93701C5.84623 6.75055 6.72099 7.37695 7.32866 7.81626C7.39543 7.86441 7.53727 7.96909 7.75426 8.13043C7.97128 8.29188 8.15161 8.42235 8.2951 8.52187C8.43869 8.62135 8.61228 8.73295 8.81604 8.8565C9.01974 8.97993 9.21175 9.07278 9.39204 9.13424C9.57236 9.19621 9.73929 9.22691 9.89285 9.22691H9.90292H9.91302C10.0666 9.22691 10.2336 9.19617 10.4139 9.13424C10.5941 9.07278 10.7863 8.97982 10.9898 8.8565C11.1934 8.73281 11.367 8.62132 11.5106 8.52187C11.6542 8.42235 11.8344 8.29188 12.0515 8.13043C12.2685 7.96894 12.4105 7.86441 12.4772 7.81626C13.0915 7.37695 14.6542 6.26125 17.1649 4.46926C17.6523 4.11927 18.0595 3.69695 18.3867 3.2026C18.7141 2.70847 18.8776 2.1901 18.8776 1.64778C18.8776 1.19459 18.7189 0.806648 18.4017 0.483996C18.0845 0.161272 17.7089 0 17.2749 0H2.53078C2.01664 0 1.62097 0.178478 1.34385 0.535433C1.06677 0.89246 0.928223 1.33873 0.928223 1.87419C0.928223 2.30672 1.11192 2.77542 1.47913 3.28001C1.84631 3.78464 2.23706 4.18116 2.65101 4.46948Z" fill="#25282B"/>
<path d="M17.8759 5.57122C15.6858 7.09524 14.0229 8.27965 12.8879 9.12421C12.5072 9.41245 12.1985 9.63746 11.9613 9.7987C11.7242 9.96004 11.4089 10.1248 11.0148 10.2929C10.6209 10.4613 10.2538 10.5452 9.91316 10.5452H9.90295H9.89288C9.55233 10.5452 9.18501 10.4613 8.7911 10.2929C8.39719 10.1248 8.08162 9.96004 7.84456 9.7987C7.60758 9.63746 7.2987 9.41245 6.91812 9.12421C6.01659 8.44457 4.35724 7.26008 1.93998 5.57122C1.55926 5.3105 1.22204 5.01165 0.928223 4.67529V12.852C0.928223 13.3054 1.08508 13.6931 1.39897 14.0158C1.71278 14.3386 2.09014 14.4999 2.53089 14.4999H17.2751C17.7157 14.4999 18.0931 14.3386 18.4069 14.0158C18.7209 13.693 18.8776 13.3054 18.8776 12.852V4.67529C18.5905 5.00469 18.2567 5.30354 17.8759 5.57122Z" fill="#25282B"/>
</svg>
