<svg width="80" height="80" viewBox="0 0 80 80" fill="none" xmlns="http://www.w3.org/2000/svg">
<g clip-path="url(#clip0)">
<path d="M76 58.6676H63.3333C62.4275 57.721 61.4649 56.8304 60.4507 56.001C58.8031 54.6839 57.2948 53.2015 55.9493 51.577C54.3656 49.7536 53.2114 47.5979 52.572 45.269C54.4 45.1863 55.6387 45.0276 56.5013 44.9143C57.434 44.6262 58.4434 44.7261 59.3013 45.1916C60.0319 45.5994 60.7099 46.0951 61.32 46.6676C62.8989 48.3239 65.0723 49.2834 67.36 49.3343C73.548 49.3343 75.96 46.3436 75.96 38.6676C75.96 35.3596 72.9333 30.9343 69.276 26.801C69.3453 26.801 69.4227 26.8143 69.492 26.8143C71.2844 26.866 73.0542 26.4033 74.592 25.481C76.767 23.9852 78.2302 21.6598 78.6373 19.0516C78.7294 18.6243 78.6062 18.1789 78.3074 17.8597C78.0087 17.5405 77.5725 17.388 77.14 17.4516C73.9659 17.7542 70.8249 16.6077 68.592 14.3316C71.1617 10.4475 72.8919 6.06966 73.672 1.47828C73.721 1.02645 73.5365 0.580763 73.1825 0.295796C72.8284 0.0108289 72.3536 -0.074168 71.9227 0.0702829C68.3913 1.31067 65.0381 3.00966 61.9493 5.12362C60.2377 3.91567 58.1382 3.38721 56.0587 3.64095C54.7345 3.81962 53.4871 4.36662 52.4587 5.21962C51.8727 4.58459 51.1443 4.09789 50.3333 3.79962C48.7693 3.3146 47.0828 4.02237 46.3333 5.47828C44.5968 4.49804 42.6341 3.98877 40.64 4.00095C36.0853 4.00095 33.6133 7.45162 32.5467 10.3103C29.3499 8.44883 25.304 8.94843 22.656 11.5316C19.897 13.8887 18.6331 17.5566 19.3547 21.113C14.3036 21.2157 9.95866 24.7156 8.78267 29.629C7.35458 34.0868 7.91164 38.9435 10.312 42.9623C7.47067 44.0676 2.62667 47.0956 2.62667 54.909C2.62518 56.2167 2.86473 57.5134 3.33333 58.7343C1.41274 59.0589 0.00522131 60.7198 0 62.6676V76.001C0 78.2101 1.79086 80.001 4 80.001H76C78.2091 80.001 80 78.2101 80 76.001V62.6676C80 60.4585 78.2091 58.6676 76 58.6676ZM69.3333 77.3343H66.6667V61.3343H69.3333V77.3343ZM64 61.3343V77.3343H16V61.3343H64ZM75.5373 20.157C75.1034 21.4092 74.273 22.4858 73.172 23.2236C71.5907 24.217 69.328 24.397 66.4613 23.7783C65.4587 22.753 64.4613 21.7716 63.4907 20.8596C64.7741 19.5152 65.9687 18.0886 67.0667 16.589C69.3593 18.7735 72.3726 20.0428 75.5373 20.157ZM58.9493 10.681C60.9163 11.6621 63.0873 12.1646 65.2853 12.1476C65.788 12.1476 66.3173 12.113 66.86 12.0596C66.5373 12.6023 66.1933 13.1516 65.8227 13.7116C64.5495 15.6099 63.1144 17.3943 61.5333 19.045C59.564 17.2583 57.9427 15.897 57.148 15.2423C57.0067 14.6796 56.7733 13.8316 56.4587 12.8543C57.1467 12.2236 57.9867 11.4796 58.9493 10.681ZM68.4467 9.09028C66.0978 9.68668 63.626 9.58615 61.3333 8.80095C61.7587 8.48362 62.1933 8.16362 62.6493 7.84362C65.1224 6.10825 67.7685 4.63372 70.5453 3.44362C70.0194 5.38589 69.3169 7.27598 68.4467 9.09028ZM56.412 6.29028C57.4801 6.16597 58.5614 6.35498 59.524 6.83428C57.9373 8.03428 56.568 9.17962 55.4627 10.1676C55.0598 9.19039 54.5871 8.24349 54.048 7.33428C54.7148 6.7582 55.5375 6.393 56.412 6.28495V6.29028ZM49.4973 6.33695C51.5907 7.03828 53.7787 12.593 54.6627 16.3143C54.7305 16.6001 54.8908 16.8556 55.1187 17.041C60.1733 21.1476 73.2933 33.0516 73.2933 38.6676C73.2933 45.513 71.4627 46.6676 67.36 46.6676C65.7127 46.5967 64.1625 45.8687 63.056 44.6463C62.2808 43.9267 61.4175 43.3085 60.4867 42.8063C59.1562 42.1027 57.6134 41.9129 56.152 42.273C54.4417 42.5085 52.7183 42.6358 50.992 42.6543C50.6453 42.6663 50.2947 42.6703 49.9253 42.6663C44.0053 42.6663 43.792 36.6783 43.792 35.9996C43.792 35.2632 43.195 34.6663 42.4587 34.6663C41.7223 34.6663 41.1253 35.2632 41.1253 35.9996C41.1253 39.2183 42.9573 45.2943 49.8667 45.333C50.5138 48.2657 51.8895 50.9882 53.8667 53.249C55.3187 55.0077 56.9467 56.6133 58.7253 58.041C58.9747 58.253 59.2053 58.461 59.448 58.669H22.6267V50.6676C22.6267 50.617 22.6267 49.9783 22.692 48.8983C23.0662 41.7204 24.6817 34.6618 27.4667 28.0356C32.076 17.6689 44.9573 16.0076 45.0853 15.9916C45.6992 15.9183 46.1822 15.4326 46.252 14.8183C46.5301 12.451 47.1201 10.1309 48.0067 7.91828C48.2667 7.37562 48.8973 6.14095 49.4973 6.33162V6.33695ZM12.7107 45.0143C13.2069 44.9427 13.621 44.5988 13.7825 44.1241C13.944 43.6495 13.8256 43.1244 13.476 42.765C13.3 42.581 9.164 38.161 11.3507 30.349C12.4002 26.062 16.512 23.2553 20.8867 23.8396C21.3533 23.91 21.822 23.726 22.116 23.357C22.4127 22.9895 22.4928 22.4924 22.3267 22.0503C22.2493 21.841 20.46 16.8983 24.3827 13.5636C28.6147 9.96362 31.9827 13.113 32.3533 13.4796C32.7033 13.8373 33.224 13.9689 33.7019 13.8205C34.1797 13.6721 34.5343 13.2686 34.62 12.7756C34.6667 12.5263 35.7507 6.66762 40.64 6.66762C42.2234 6.64686 43.782 7.062 45.1453 7.86762C44.5002 9.69621 44.0327 11.5827 43.7493 13.501C40.3373 14.1316 29.512 16.8823 25.036 26.9476C22.1202 33.8696 20.4258 41.2445 20.028 48.745C19.96 49.913 19.96 50.6116 19.96 50.6636V58.6636H6.21733C5.59961 57.5073 5.28191 56.2145 5.29333 54.9036C5.29333 46.2556 12.4133 45.0596 12.7107 45.0143ZM2.66667 76.001V62.6676C2.66667 61.9312 3.26362 61.3343 4 61.3343H8V77.3343H4C3.26362 77.3343 2.66667 76.7373 2.66667 76.001ZM10.6667 61.3343H13.3333V77.3343H10.6667V61.3343ZM77.3333 76.001C77.3333 76.7373 76.7364 77.3343 76 77.3343H72V61.3343H76C76.7364 61.3343 77.3333 61.9312 77.3333 62.6676V76.001Z" fill="white"/>
<path d="M21.3333 73.3333H37.3333C38.8061 73.3333 40 72.1394 40 70.6667V68C40 66.5273 38.8061 65.3334 37.3333 65.3334H21.3333C19.8606 65.3334 18.6667 66.5273 18.6667 68V70.6667C18.6667 72.1394 19.8606 73.3333 21.3333 73.3333ZM21.3333 68H37.3333V70.6667H21.3333V68Z" fill="white"/>
<path d="M60 74.6667C60.7364 74.6667 61.3333 74.0697 61.3333 73.3334V65.3334C61.3333 64.597 60.7364 64 60 64C59.2636 64 58.6667 64.597 58.6667 65.3334V73.3334C58.6667 74.0697 59.2636 74.6667 60 74.6667Z" fill="white"/>
<path d="M54.6667 72C55.403 72 56 71.403 56 70.6667V68C56 67.2636 55.403 66.6667 54.6667 66.6667C53.9303 66.6667 53.3333 67.2636 53.3333 68V70.6667C53.3333 71.403 53.9303 72 54.6667 72Z" fill="white"/>
<path d="M50.232 28.9427C51.0209 28.0905 52.1294 27.606 53.2907 27.606C54.4519 27.606 55.5605 28.0905 56.3494 28.9427C56.8732 29.4473 57.7049 29.4389 58.2185 28.9238C58.7321 28.4088 58.7381 27.5771 58.232 27.0547C56.9566 25.6789 55.1654 24.897 53.2893 24.897C51.4133 24.897 49.6221 25.6789 48.3467 27.0547C47.8414 27.5778 47.8486 28.4094 48.3629 28.9237C48.8772 29.4381 49.7088 29.4453 50.232 28.94V28.9427Z" fill="white"/>
<path d="M70.6227 42.6667C71.359 42.6667 71.956 42.0697 71.956 41.3333C71.956 40.597 71.359 40 70.6227 40C69.8863 40 69.2893 40.597 69.2893 41.3333C69.2893 42.0697 69.8863 42.6667 70.6227 42.6667Z" fill="white"/>
<path d="M14.6666 -1.52588e-05C13.9303 -1.52588e-05 13.3333 0.596938 13.3333 1.33332V2.66665C13.3333 3.40303 13.9303 3.99999 14.6666 3.99999C15.403 3.99999 16 3.40303 16 2.66665V1.33332C16 0.596938 15.403 -1.52588e-05 14.6666 -1.52588e-05Z" fill="white"/>
<path d="M17.3333 6.6667H18.6666C19.403 6.6667 20 6.06974 20 5.33336C20 4.59698 19.403 4.00003 18.6666 4.00003H17.3333C16.5969 4.00003 16 4.59698 16 5.33336C16 6.06974 16.5969 6.6667 17.3333 6.6667Z" fill="white"/>
<path d="M13.3333 9.33332C13.3333 10.0697 13.9303 10.6667 14.6666 10.6667C15.403 10.6667 16 10.0697 16 9.33332V7.99999C16 7.26361 15.403 6.66666 14.6666 6.66666C13.9303 6.66666 13.3333 7.26361 13.3333 7.99999V9.33332Z" fill="white"/>
<path d="M12 4.00003H10.6667C9.9303 4.00003 9.33334 4.59698 9.33334 5.33336C9.33334 6.06974 9.9303 6.6667 10.6667 6.6667H12C12.7364 6.6667 13.3333 6.06974 13.3333 5.33336C13.3333 4.59698 12.7364 4.00003 12 4.00003Z" fill="white"/>
<path d="M5.33333 13.3333C4.59695 13.3333 4 13.9303 4 14.6667V16C4 16.7364 4.59695 17.3333 5.33333 17.3333C6.06971 17.3333 6.66667 16.7364 6.66667 16V14.6667C6.66667 13.9303 6.06971 13.3333 5.33333 13.3333Z" fill="white"/>
<path d="M8.00002 17.3333C7.26364 17.3333 6.66669 17.9303 6.66669 18.6666C6.66669 19.403 7.26364 20 8.00002 20H9.33335C10.0697 20 10.6667 19.403 10.6667 18.6666C10.6667 17.9303 10.0697 17.3333 9.33335 17.3333H8.00002Z" fill="white"/>
<path d="M4 22.6667C4 23.403 4.59695 24 5.33333 24C6.06971 24 6.66667 23.403 6.66667 22.6667V21.3333C6.66667 20.597 6.06971 20 5.33333 20C4.59695 20 4 20.597 4 21.3333V22.6667Z" fill="white"/>
<path d="M2.66667 17.3333H1.33333C0.596954 17.3333 0 17.9303 0 18.6666C0 19.403 0.596954 20 1.33333 20H2.66667C3.40305 20 4 19.403 4 18.6666C4 17.9303 3.40305 17.3333 2.66667 17.3333Z" fill="white"/>
</g>
<defs>
<clipPath id="clip0">
<rect width="80" height="80" fill="white"/>
</clipPath>
</defs>
</svg>
