/In:"E:\DuAn\kidinteractiveapp\KidInteractiveAPP\YetAnotherShoppingApp\YetAnotherShoppingApp\obj\x86\Release\ilc\in"
/Lib:"E:\DuAn\kidinteractiveapp\KidInteractiveAPP\YetAnotherShoppingApp\YetAnotherShoppingApp\obj\x86\Release\ilc\in"
/Lib:"C:\Program Files (x86)\MSBuild\15.0\.Net\.NetNative\15.0.24211\x86\ilc\lib\Private"
/WinMD:"E:\DuAn\kidinteractiveapp\KidInteractiveAPP\YetAnotherShoppingApp\YetAnotherShoppingApp\obj\x86\Release\ilc\in\WinMetadata\Microsoft.UI.Xaml.winmd"
/WinMD:"E:\DuAn\kidinteractiveapp\KidInteractiveAPP\YetAnotherShoppingApp\YetAnotherShoppingApp\obj\x86\Release\ilc\in\WinMetadata\Windows.winmd"
/VSTelemetrySessionSettings:{"IsOptedIn":true,"HostName":"Dev14","AppInsightsInstrumentationKey":"f144292e-e3b2-4011-ac90-20e5c03fbce5","AsimovInstrumentationKey":"AIF-312cbd79-9dbb-4c48-a7da-3cc2a931cb70","AppId":1001,"UserId":"0707b9ef-ff9a-4ce6-b67a-193f4663bd1d","Id":"a15d86fe-dc3a-4d8c-8514-a8074ffbf926","ProcessStartTime":637291722311192792}
/RdXmlPath:"C:\Program Files (x86)\MSBuild\15.0\.Net\.NetNative\15.0.24211\LibraryXML"
/RunOnlyPreDR
