<svg width="43" height="58" viewBox="0 0 43 58" fill="none" xmlns="http://www.w3.org/2000/svg">
<path d="M7.76278 56.2059C3.74282 58.9783 0.462158 57.8694 0.462158 52.9715V5.19399C0.462158 0.296105 3.74282 -0.812851 7.76278 1.95954L39.9225 24.0462C43.9425 26.8186 43.9425 31.3469 39.9225 34.073L7.76278 56.2059Z" fill="white"/>
</svg>
