<svg width="76" height="76" viewBox="0 0 76 76" fill="none" xmlns="http://www.w3.org/2000/svg">
<path d="M46.9923 43.8827C45.4048 45.6023 43.4312 46.9195 41.2342 47.7257C39.8179 48.2017 38.7062 49.3134 38.2301 50.7298C37.4243 52.9269 36.1069 54.9007 34.3871 56.4878L17.6002 73.2748C13.9508 76.7554 8.21071 76.7554 4.56133 73.2748L2.69999 71.4167C-0.898044 67.8151 -0.898044 61.9794 2.69999 58.3778L19.4774 41.6004C21.0648 39.8807 23.0385 38.5635 25.2355 37.7574C26.6518 37.2813 27.7635 36.1696 28.2395 34.7533C29.0606 32.5317 30.3985 30.5374 32.1427 28.935C32.8475 28.2219 33.8086 27.8206 34.8112 27.8208C35.8097 27.8185 36.7674 28.2164 37.4703 28.9255L47.046 38.5012C48.5172 39.9968 48.4975 42.402 47.0019 43.8732C46.9988 43.8765 46.9955 43.8796 46.9923 43.8827Z" fill="white"/>
<path d="M74.3343 61.1192L74.3343 61.1193C74.3084 61.1335 74.2768 61.1329 74.2516 61.1176L74.2483 61.1156L65.6 55.9179L64.8851 55.4882L64.1429 55.8688C61.0822 57.4381 59.0304 60.4566 58.6969 63.8798L58.6049 64.8237L59.4182 65.3116L69.0922 71.114L69.0927 71.1143C69.132 71.1379 69.1446 71.1887 69.1212 71.2278C69.1162 71.236 69.1097 71.2436 69.1019 71.2499L69.0916 71.2582L69.0917 71.2582C66.6221 73.2883 63.5378 74.4219 60.3417 74.4749C56.5624 74.4124 52.9775 72.7862 50.441 69.9829L50.3953 69.9325L50.3453 69.8863C47.4671 67.2339 45.8261 63.5012 45.8177 59.5875C45.8348 56.8534 44.7163 54.2354 42.7298 52.3577L38.2003 47.8156L38.199 47.8143C38.1668 47.7821 38.1666 47.7297 38.1991 47.6971L38.1996 47.6967C38.9039 46.9914 39.7631 46.4599 40.7088 46.1445L40.7401 46.134L40.7709 46.1222C42.7477 45.3646 44.5176 44.1512 45.9369 42.5809L45.9644 42.5505L45.9901 42.5186C46.6356 41.721 46.6356 40.5807 45.9901 39.7831L45.9421 39.7238L45.8882 39.6696L43.4825 37.2479L43.4791 37.2445C43.447 37.2124 43.4468 37.1602 43.479 37.1277C43.479 37.1276 43.479 37.1276 43.479 37.1276C43.4791 37.1276 43.4792 37.1275 43.4793 37.1274L45.0617 35.545L74.3343 61.1192ZM74.3343 61.1192L74.3443 61.1138M74.3343 61.1192L74.3443 61.1138M74.3443 61.1138C74.4008 61.0832 74.4398 61.0282 74.4502 60.9648C74.6904 57.0342 73.2881 53.1794 70.5768 50.3218L70.5755 50.3205C67.863 47.4542 64.0927 45.8272 60.1464 45.8196C59.0567 45.8229 57.9716 45.9631 56.9167 46.2368L56.0861 46.4523M74.3443 61.1138L56.0861 46.4523M56.0861 46.4523L55.4793 45.8456M56.0861 46.4523L55.4793 45.8456M55.4793 45.8456L45.1788 35.5451M55.4793 45.8456L45.1788 35.5451M45.1788 35.5451L45.1786 35.5448C45.1461 35.5126 45.0939 35.5129 45.0618 35.5448L45.1788 35.5451Z" stroke="white" stroke-width="3"/>
<path d="M39.9685 31.3528V30.474H40.0645L33.2516 23.631C31.2625 21.7458 30.1417 19.1217 30.1554 16.3807C30.1508 12.5048 28.5368 8.80498 25.6987 6.16524L25.6468 6.11703L25.5998 6.06417C23.1031 3.25913 19.56 1.60875 15.8069 1.50206L15.8026 1.50206C15.8021 1.50206 15.8015 1.50206 15.801 1.50206C12.8391 1.50924 9.95354 2.44225 7.54813 4.17057L7.54319 4.1741C7.53404 4.18061 7.52623 4.18903 7.52036 4.19882L7.52032 4.1989C7.49691 4.23793 7.50949 4.28886 7.54885 4.31247L7.54935 4.31277L18.1381 10.6691L18.9509 11.1571L18.859 12.1006C18.5256 15.5234 16.4732 18.5411 13.4124 20.1088L12.6711 20.4885L11.9569 20.0601L1.80541 13.9698C1.79579 13.9641 1.78481 13.9602 1.77319 13.9587C1.72807 13.9529 1.68662 13.9847 1.68078 14.0301L1.68081 14.0301L1.67947 14.04L1.62887 14.4135L1.62654 14.4307L1.62381 14.4479C1.55037 14.9094 1.50899 15.3752 1.50002 15.8423C1.51731 23.7454 7.92394 30.1475 15.8287 30.1576C15.8289 30.1576 15.8292 30.1576 15.8294 30.1576L15.8383 30.1576C18.6152 30.0603 21.3174 31.0706 23.3497 32.9665L23.368 32.9836L23.3857 33.0013L28.1625 37.7655L28.1636 37.7666C28.1958 37.7988 28.2475 37.7989 28.2798 37.7677C28.9782 37.0623 29.5042 36.2049 29.817 35.2624L29.8273 35.2312L29.839 35.2005C30.578 33.262 31.7594 31.5228 33.2891 30.1217C34.0634 29.3663 35.278 29.2894 36.1424 29.949L36.2222 30.0099L36.2932 30.0809L38.7082 32.4959C38.7406 32.5283 38.793 32.5282 38.8252 32.4961L39.9685 31.3528ZM39.9685 31.3528L38.8253 32.496L39.9685 31.3528Z" stroke="white" stroke-width="3"/>
<path d="M75.8049 5.4594L70.3474 16.371C69.5478 17.9829 67.9018 19.0006 66.1024 18.9952H63.9657L45.4347 37.5264C44.8166 38.1443 43.8148 38.1443 43.1966 37.5264L38.4483 32.7781C37.8304 32.1601 37.8304 31.1582 38.4483 30.54L56.9795 12.009V9.87222C56.9722 8.07157 57.9903 6.4236 59.6036 5.62411L70.5153 0.166664C71.1247 -0.137524 71.8604 -0.0176353 72.3417 0.464172L75.5072 3.62967C75.9907 4.11162 76.1107 4.84924 75.8049 5.4594Z" fill="white"/>
</svg>
