<svg width="61" height="61" viewBox="0 0 61 61" fill="none" xmlns="http://www.w3.org/2000/svg">
<g clip-path="url(#clip0)">
<path d="M29.1921 44.4911C29.7441 45.0436 30.6397 45.0436 31.1922 44.4911C31.7447 43.9391 31.7447 43.0436 31.1922 42.491L20.4808 31.7796L48.9408 31.7796C49.7244 31.7796 50.3595 31.1445 50.3595 30.3609C50.3595 29.5773 49.7244 28.9421 48.9408 28.9421L20.4952 28.9421L31.2066 18.2307C31.4721 17.9658 31.6217 17.6056 31.6217 17.2304C31.6217 16.8552 31.4721 16.4955 31.2066 16.2301C30.9406 15.9624 30.577 15.8139 30.1991 15.8189C29.8228 15.8205 29.4615 15.9679 29.1921 16.2301L16.0688 29.3534C15.8017 29.6205 15.6532 29.9835 15.6571 30.3609C15.6598 30.7372 15.8073 31.0974 16.0688 31.3678L29.1921 44.4911Z" fill="white"/>
<path d="M30.4973 60.8637C42.8347 60.8659 53.9579 53.4347 58.679 42.0361C63.3997 30.6375 60.7883 17.5175 52.062 8.79616C40.1518 -3.114 20.8421 -3.114 8.93253 8.79616C-2.97762 20.7058 -2.97762 40.0155 8.93253 51.9257C14.639 57.6649 22.4038 60.8831 30.4973 60.8637ZM30.4973 2.6956C45.7486 2.6956 58.1625 15.1095 58.1625 30.3609C58.1625 45.6123 45.7486 58.0262 30.4973 58.0262C15.2459 58.0262 2.83198 45.6123 2.83198 30.3609C2.83198 15.1095 15.2459 2.6956 30.4973 2.6956Z" fill="white"/>
</g>
<defs>
<clipPath id="clip0">
<rect width="61" height="61" fill="white" transform="translate(61 61) rotate(-180)"/>
</clipPath>
</defs>
</svg>
