<svg width="330" height="67" viewBox="0 0 330 67" fill="none" xmlns="http://www.w3.org/2000/svg">
<path d="M37.3 66.4001H28.1C26.9 66.4001 26 65.5001 26 64.3001C25.9 51.8001 25.5 47.3001 16.6 48.6001C15.5 48.8001 14.7 49.7001 14.8 50.7001L15.1 64.2001C15.1 65.4001 14.2 66.4001 13 66.4001H2.9C1.8 66.4001 0.8 65.5001 0.8 64.3001L0 8.90012C0 7.80012 0.9 6.80012 2 6.80012L12.9 6.30012C14.1 6.20012 15.1 7.20012 15.1 8.40012L15 35.0001C15 36.2001 16 37.1001 17.1 37.1001C19.8 37.0001 23.2 36.4001 23.2 31.6001C23.2 28.0001 22.6 17.7001 22.5 14.5001C22.4 13.3001 23.3 12.3001 24.5 12.3001L36 16.1001C37.2 16.0001 38.2 17.0001 38.2 18.2001L38.1 29.3001C38.1 39.5001 29.2 41.3001 25.4 41.3001C40.3 41.3001 39.5 49.6001 39.4 64.3001C39.4 65.5001 38.5 66.4001 37.3 66.4001Z" fill="white"/>
<path d="M58.7001 55V64.3C58.7001 65.2001 58 66 57 66H48.5C47.6 66 46.8 65.3 46.8 64.3V25C46.8 24.1 47.5001 23.4 48.4001 23.3L56.9001 26.3C57.9001 26.3 58.7001 27 58.7001 28V41C58.7001 42 59.5 42.8001 60.5 42.7001L63.2001 42.4001C64.1 42.3001 64.7 41.6 64.7 40.7001V28.5C64.7 27.6 65.4001 26.9 66.3001 26.8L78.3001 24.8C79.3001 24.8 80.1 25.5 80.1 26.5L76.5 64.3C76.5 65.2001 75.8001 66 74.8001 66H66.4001C65.5001 66 64.7 65.3 64.7 64.3V54.7001C64.7 53.7001 63.9001 52.9 62.9001 53L60.2001 53.3C59.3001 53.4 58.7001 54.1 58.7001 55Z" fill="white"/>
<path d="M121.7 66.4H111.3C110.3 66.4 109.4 65.7 109.2 64.7L108.1 58.6C107.9 57.6 107 56.9 106 56.9H99.4C98.4 56.9 97.5 57.6 97.3 58.6L96.1999 64.7C95.9999 65.7 95.1 66.4 94.1 66.4H84C82.6 66.4 81.6 65.1 81.9 63.8L92.5 18.3C92.7 17.4 93.5 16.7 94.5 16.7L111.2 16.1C112.2 16.1 113.1 16.7 113.3 17.7L123.8 63.8C124.1 65.1 123.1 66.4 121.7 66.4ZM102 11C103 9.9 104 8.9 104.7 8.2C105.1 7.8 105.6 7.5 106.2 7.5H108.2C110.1 7.5 111 9.8 109.6 11.1L106.6 13.9C106.2 14.3 105.7 14.5 105.2 14.5H103.5C101.6 14.6 100.7 12.3 102 11ZM106.5 47.3L104.9 37.3C104.7 36.3 103.9 35.5 102.8 35.5C101.8 35.5 100.9 36.3 100.7 37.3L99.1 47.3C98.9 48.6 99.9 49.7 101.2 49.7H104.3C105.7 49.7 106.7 48.5 106.5 47.3Z" fill="white"/>
<path d="M193.4 3.60006L196.2 63.5001C196.3 65.1001 195 66.4001 193.5 66.4001H179.8C178.4 66.4001 177.2 65.3001 177.1 63.9001L176.2 51.6001C176 48.3001 171.2 48.2001 170.8 51.4001L169.2 63.2001C169 64.5001 168 65.5001 166.6 65.6001L159.6 66.0001C158.3 66.1001 157.1 65.2001 156.8 63.9001L152.2 45.3001C151.4 42.2001 146.9 42.7001 146.8 45.9001L146.5 63.7001C146.5 65.2001 145.3 66.4001 143.8 66.4001H129.4C127.9 66.4001 126.6 65.1001 126.7 63.6001L128.2 4.40006C128.2 3.00006 129.4 1.80006 130.8 1.70006L149.8 1.00006C151.2 0.900059 152.3 1.90006 152.6 3.20006C153.5 7.90006 155.5 18.9001 157.9 31.1001C158.5 34.1001 162.8 34.0001 163.3 31.0001L167.8 4.00006C168 2.70006 169.1 1.80006 170.4 1.70006L190.6 1.00006C192.1 1.00006 193.4 2.10006 193.4 3.60006Z" fill="white"/>
<path d="M226.3 10.5999C234.1 10.0999 238.8 12.6999 241.6 16.3999C246.6 22.7999 245.7 32.1999 245.7 32.1999C245.7 41.2999 242.7 46.7999 238.6 49.6999C233.3 53.5999 226.4 53.5999 222.7 53.1999C221.3 53.0999 220.1 54.1999 220.1 55.5999L220.2 64.0999C220.2 65.3999 219.2 66.4999 217.9 66.4999H206.8C205.5 66.4999 204.5 65.4999 204.5 64.1999V13.6999C204.5 12.4999 205.5 11.3999 206.7 11.3999L226.3 10.5999ZM219.2 28.3999L219.4 37.8999C219.4 39.1999 220.5 40.1999 221.8 40.1999L225.4 40.0999C225.4 40.0999 230.6 40.1999 230.3 35.2999L230.5 29.5999C230.4 26.5999 228.7 25.4999 226.3 25.6999L221.4 25.9999C220.2 26.0999 219.2 27.1999 219.2 28.3999Z" fill="white"/>
<path d="M264.5 54V64.1C264.5 65.1 263.7 65.9001 262.7 65.9001H253.5C252.5 65.9001 251.7 65.1 251.7 64.1V25.3C251.7 24.3 252.5 23.5 253.4 23.5L262.2 24.8C263.2 24.8 264.1 25.6 264.1 26.6L264.5 38.9C264.5 40 265.4 40.8 266.5 40.7L269.4 40.4C270.3 40.3 271 39.5 271 38.6V25.3C271 24.3 271.8 23.5 272.7 23.5L282 23C283 22.9 283.9 23.8 283.9 24.8V64.1C283.9 65.1 283.1 65.9001 282.1 65.9001H273C272 65.9001 271.2 65.1 271.2 64.1V53.8C271.2 52.7 270.3 51.9 269.2 52L266.3 52.3C265.2 52.3 264.5 53.1 264.5 54Z" fill="white"/>
<path d="M327.9 66.4H317.5C316.5 66.4 315.6 65.7 315.4 64.7L314.3 58.6C314.1 57.6 313.2 56.9 312.2 56.9H305.6C304.6 56.9 303.7 57.6 303.5 58.6L302.4 64.7C302.2 65.7 301.3 66.4 300.3 66.4H289.9C288.5 66.4 287.5 65.1 287.8 63.8L298.4 18.3C298.6 17.4 299.4 16.7 300.4 16.7L317.1 16.1C318.1 16.1 319 16.7 319.2 17.7L329.7 63.8C330.2 65.1 329.2 66.4 327.9 66.4ZM308.1 11C309.1 9.9 310.1 8.9 310.8 8.2C311.2 7.8 311.7 7.5 312.3 7.5H314.3C316.2 7.5 317.1 9.8 315.7 11.1L312.7 13.9C312.3 14.3 311.8 14.5 311.3 14.5H309.6C307.8 14.6 306.8 12.3 308.1 11ZM312.6 47.3L311 37.3C310.8 36.3 310 35.5 308.9 35.5C307.9 35.5 307 36.3 306.8 37.3L305.2 47.3C305 48.6 306 49.7 307.3 49.7H310.4C311.8 49.7 312.8 48.5 312.6 47.3Z" fill="white"/>
</svg>
